('C:\\Users\\sera\\personal\\python3\\python\\image_request_generator\\build\\image_request_generator\\out00-PKG.pkg',
 {'BINARY': 1,
  'DATA': 1,
  'EXECUTABLE': 1,
  'EXTENSION': 1,
  'PYMODULE': 1,
  'PYSOURCE': 1,
  'PYZ': 0},
 [('out00-PYZ.pyz',
   'C:\\Users\\sera\\personal\\python3\\python\\image_request_generator\\build\\image_request_generator\\out00-PYZ.pyz',
   'PYZ'),
  ('struct',
   'c:\\users\\sera\\appdata\\local\\programs\\python\\python35-32\\lib\\struct.pyo',
   'PYMODULE'),
  ('pyimod01_os_path',
   'c:\\users\\sera\\appdata\\local\\programs\\python\\python35-32\\lib\\site-packages\\PyInstaller\\loader\\pyimod01_os_path.pyc',
   'PYMODULE'),
  ('pyimod02_archive',
   'c:\\users\\sera\\appdata\\local\\programs\\python\\python35-32\\lib\\site-packages\\PyInstaller\\loader\\pyimod02_archive.pyc',
   'PYMODULE'),
  ('pyimod03_importers',
   'c:\\users\\sera\\appdata\\local\\programs\\python\\python35-32\\lib\\site-packages\\PyInstaller\\loader\\pyimod03_importers.pyc',
   'PYMODULE'),
  ('pyiboot01_bootstrap',
   'c:\\users\\sera\\appdata\\local\\programs\\python\\python35-32\\lib\\site-packages\\PyInstaller\\loader\\pyiboot01_bootstrap.py',
   'PYSOURCE'),
  ('pyi_rth__tkinter',
   'c:\\users\\sera\\appdata\\local\\programs\\python\\python35-32\\lib\\site-packages\\PyInstaller\\loader\\rthooks\\pyi_rth__tkinter.py',
   'PYSOURCE'),
  ('image_request_generator',
   'C:\\Users\\sera\\personal\\python3\\python\\image_request_generator\\image_request_generator.py',
   'PYSOURCE'),
  ('image_request_generator.exe.manifest',
   'C:\\Users\\sera\\personal\\python3\\python\\image_request_generator\\build\\image_request_generator\\image_request_generator.exe.manifest',
   'BINARY')],
 True,
 False,
 False)
